{
  "images" : [
    {
      "idiom" : "universal",
      "filename" : "Basic Tower x1 (35x64).png",
      "scale" : "1x"
    },
    {
      "idiom" : "universal",
      "filename" : "Basic Tower 70x128.png",
      "scale" : "2x"
    },
    {
      "idiom" : "universal",
      "filename" : "Basic Tower x3 (105x192).png",
      "scale" : "3x"
    }
  ],
  "info" : {
    "version" : 1,
    "author" : "xcode"
  }
}